…
``` r
# Creating the index function
pcscale <- function(x) {
  100 * (x - min(x))/(max(x) - min(x))
}

# rewrite the scaled vector
teams <- mutate(teams, PC1 = -pcvalue$PC1, PC2 = pcvalue$PC2)
teams$PC1 <- pcscale(teams$PC1)
teams
```

    ## # A tibble: 30 x 17
    ##     team experience salary points3 points2 free_throws points off_rebounds
    ##    <chr>      <dbl>  <dbl>   <int>   <int>       <int>  <dbl>        <int>
    ##  1   CLE        128 125.79    1012    2107        1355   8605          727
    ##  2   LAC        124 114.78     841    2401        1586   8911          740
    ##  3   TOR         57 108.46     626    2359        1570   8166          848
    ##  4   MEM         83 108.34     750    2140        1465   7995          866
    ##  5   SAS         99 104.69     743    2459        1431   8578          821
    ##  6   DET         55 103.07     631    2638        1140   8309          908
    ##  7   POR         43 103.03     852    2156        1386   8254          710
    ##  8   ORL         57 102.41     614    2168        1230   7408          699
    ##  9   CHO         66 100.25     808    2102        1499   8127          634
    ## 10   WAS         56  98.78     671    2417        1316   8163          748
    ## # ... with 20 more rows, and 9 more variables: def_rebounds <int>,
    ## #   assists <int>, steals <int>, blocks <int>, turnovers <int>,
    ## #   fouls <int>, efficiency <dbl>, PC1 <dbl>, PC2 <dbl>
…
